﻿"Post ID",Title,URLs,Categories
51617,,https://observatorio.minedu.gob.pe/membership-join/membership-registration/,
51620,,https://observatorio.minedu.gob.pe/membership-login/password-reset/,
51316,"¿QUIÉNES SOMOS?",https://observatorio.minedu.gob.pe/quienes-somos/,
53495,"Buena Practica Detalle &#8211; Lineadetiempo Detalle",https://observatorio.minedu.gob.pe/buena-practica-detalle-lineadetiempo-detalle/,
1096,"BUENAS PRÁCTICAS",https://observatorio.minedu.gob.pe/buenas-practicas/,
53362,"Busqueda General",https://observatorio.minedu.gob.pe/busqueda-general/,
54253,"Cabecera Observatorio",https://observatorio.minedu.gob.pe/cabecera-observatorio/,
56355,"Cambiar Perfil",https://observatorio.minedu.gob.pe/cambiar-perfil/,
54812,"Contact Form",https://observatorio.minedu.gob.pe/contact-form/,
51306,CONTÁCTENOS,https://observatorio.minedu.gob.pe/contactenos/,
51619,"Editar Mi Perfil",https://observatorio.minedu.gob.pe/membership-login/membership-profile/,
53783,"Editar Perfil",https://observatorio.minedu.gob.pe/editar-perfil/,
55411,eqweqwe,https://observatorio.minedu.gob.pe/eqweqwe/,
54000,"Forgot Password",https://observatorio.minedu.gob.pe/forgot-password/,
54006,"Grupo prueba",https://observatorio.minedu.gob.pe/grupo-prueba/,
54474,Grupos,https://observatorio.minedu.gob.pe/groups/,
53848,"Guia &#8211; Buena Practica Detalle &#8211; Inicial",https://observatorio.minedu.gob.pe/buena-practica-detalle-inicial/,
53830,"Guia &#8211; Buena Practica Detalle &#8211; Primaria",https://observatorio.minedu.gob.pe/buena-practica-detalle-primaria/,
55254,"Guia &#8211; Buena Practica Detalle &#8211; Secundaria",https://observatorio.minedu.gob.pe/guia-buena-practica-detalle-secundaria/,
53417,"Guia &#8211; Historico Articulos",https://observatorio.minedu.gob.pe/mas-noticias/,
55786,"Guia &#8211; Iniciar Sesion V2",https://observatorio.minedu.gob.pe/guia-iniciar-sesion-v2/,
54100,"Guia &#8211; Investigaciones",https://observatorio.minedu.gob.pe/guia-investigaciones/,
55824,"Guia &#8211; Mensaje Reestablecer Contraseña",https://observatorio.minedu.gob.pe/guia-login-cambio-contrasena/,
56299,"Guia &#8211; Mensaje Registro",https://observatorio.minedu.gob.pe/guia-mensaje-registro/,
56021,"Guia &#8211; Mensaje Sesión Caducada",https://observatorio.minedu.gob.pe/guia-mensaje-sesion-caducada/,
54322,"Guia &#8211; Nueva Cabecera",https://observatorio.minedu.gob.pe/guia-nueva-cabecera/,
56238,"Guia &#8211; RED AMIGOS &#8211; amistades",https://observatorio.minedu.gob.pe/guia-red-amigos-amistades/,
56208,"Guia &#8211; RED PERFIL &#8211; Cambioperfil",https://observatorio.minedu.gob.pe/guia-red-perfil-cambioperfil/,
56112,"Guia &#8211; RED PERFIL &#8211; Editar",https://observatorio.minedu.gob.pe/guia-red-perfil-editar/,
56080,"Guia &#8211; RED PERFIL &#8211; Ver",https://observatorio.minedu.gob.pe/guia-red-perfil-ver-y-editar/,
54330,"Guia &#8211; Valoracion por Perfil",https://observatorio.minedu.gob.pe/guia-valoracion-por-perfil/,
51622,Guia-Titulo-Noticia/Evento/Investigaciones,https://observatorio.minedu.gob.pe/noticia-detalle/,
53926,"Historico Agenda",https://observatorio.minedu.gob.pe/historico-agenda/,
49764,"Iniciar Sesión",https://observatorio.minedu.gob.pe/iniciar-sesion/,
55157,"Iniciar Sesión &#8211; Variante RED",https://observatorio.minedu.gob.pe/iniciar-sesion-variante-red/,
1168,INICIO,https://observatorio.minedu.gob.pe/,
51618,"Inicio de Sesión",https://observatorio.minedu.gob.pe/membership-login/,
49740,INVESTIGACIONES,https://observatorio.minedu.gob.pe/investigaciones-2/,
132,"IP Bloqueada",https://observatorio.minedu.gob.pe/ip-bloqueada/,
51616,"Join Us",https://observatorio.minedu.gob.pe/membership-join/,
51936,"LISTAR NOTICIAS",https://observatorio.minedu.gob.pe/listar-noticias/,
53998,Login,https://observatorio.minedu.gob.pe/login/,
54030,"Mas Eventos V2",https://observatorio.minedu.gob.pe/mas-eventos-v2/,
53958,"Más Eventos",https://observatorio.minedu.gob.pe/prueba-calendario/,
53476,"Más Noticias &#8211; V2",https://observatorio.minedu.gob.pe/mas-noticias-v2/,
50986,"Mi Perfil",https://observatorio.minedu.gob.pe/mi-perfil/,
54012,Miembros,https://observatorio.minedu.gob.pe/members/,
53999,"My Profile",https://observatorio.minedu.gob.pe/my-profile/,
52103,Noticias,https://observatorio.minedu.gob.pe/listar-noticias-2/,
54580,"Pagina &#8211; ERROR",https://observatorio.minedu.gob.pe/pagina-error/,
54524,"Pagina detalle de Buena practica V2",https://observatorio.minedu.gob.pe/pagina-detalle-de-buena-practica-v2/,
2,"Página de ejemplo",https://observatorio.minedu.gob.pe/pagina-de-ejemplo/,
54570,"prueba carosel",https://observatorio.minedu.gob.pe/prueba-carosel/,
55451,"prueba shortcode",https://observatorio.minedu.gob.pe/prueba-shortcode/,
55949,Red,https://observatorio.minedu.gob.pe/red/,
54011,"Red de Docentes Innovadores",https://observatorio.minedu.gob.pe/activity/,
53995,Registration,https://observatorio.minedu.gob.pe/registration/,
50461,Registro,https://observatorio.minedu.gob.pe/registro/,
54925,"Resultados de Búsqueda",https://observatorio.minedu.gob.pe/resultados-de-busqueda/,
54002,"Search Users",https://observatorio.minedu.gob.pe/search-users/,
54001,"Submit New Blog Post",https://observatorio.minedu.gob.pe/submit-new-blog-post/,
52732,Suscribete,https://observatorio.minedu.gob.pe/suscribete/,
55799,"Términos y Condiciones",https://observatorio.minedu.gob.pe/terminos-y-condiciones/,
53997,"Todos los grupos",https://observatorio.minedu.gob.pe/all-groups/,
