﻿"Post ID",Title,URLs,Categories
51617,,https://observatorio.minedu.gob.pe/membership-join/membership-registration/,
51620,,https://observatorio.minedu.gob.pe/membership-login/password-reset/,
539905,"12 términos para estar al día en innovación educativa",https://observatorio.minedu.gob.pe/investigaciones/articulos/12-terminos-para-estar-al-dia-en-innovacion-educativa/,Artículos
539914,"8 ideas para promover la creatividad en el aula",https://observatorio.minedu.gob.pe/investigaciones/articulos/8-ideas-para-promover-la-creatividad-en-el-aula/,Artículos
51883,"Actualización de Datos «Somos Docentes»",https://observatorio.minedu.gob.pe/eventos/donec/,"Lima, Perú"
540239,"Análisis de la práctica educativa de los docentes: pensamiento, interacción y reflexión",https://observatorio.minedu.gob.pe/investigaciones/articulos/analisis-de-la-practica-educativa-de-los-docentes-pensamiento-interaccion-y-reflexion/,Artículos
540315,"Aprendo en Movimiento",https://observatorio.minedu.gob.pe/buena_practica/aprendo-en-movimiento/,"Docentes, Inicial"
539908,"¿Conoces la definición de innovación educativa?",https://observatorio.minedu.gob.pe/investigaciones/articulos/conoces-la-definicion-de-innovacion-educativa/,Artículos
539900,"¿Qué es el Observatorio de Buenas Prácticas e Innovación Educativa?",https://observatorio.minedu.gob.pe/noticias/que-es-el-observatorio-de-buenas-practicas-e-innovacion-educativa/,Noticias
51316,"¿QUIÉNES SOMOS?",https://observatorio.minedu.gob.pe/quienes-somos/,
540028,"BOQUITAS SANAS, NIÑOS FELICES, SOCIEDAD FELIZ",https://observatorio.minedu.gob.pe/buena_practica/boquitas-sanas-ninos-felices-sociedad-feliz/,"Docentes, Inicial"
53495,"Buena Practica Detalle &#8211; Lineadetiempo Detalle",https://observatorio.minedu.gob.pe/buena-practica-detalle-lineadetiempo-detalle/,
540539,"Buena Práctica Corazones abiertos",https://observatorio.minedu.gob.pe/buena_practica/buena-practica-corazones-abiertos/,"Docentes, Primaria"
1096,"BUENAS PRÁCTICAS",https://observatorio.minedu.gob.pe/buenas-practicas/,
53362,"Busqueda General",https://observatorio.minedu.gob.pe/busqueda-general/,
54253,"Cabecera Observatorio",https://observatorio.minedu.gob.pe/cabecera-observatorio/,
56355,"Cambiar Perfil",https://observatorio.minedu.gob.pe/cambiar-perfil/,
539917,"Caracterísiticas de un docente innovador",https://observatorio.minedu.gob.pe/noticias/caracterisiticas-de-un-docente-innovador-racteristicas-de-un-docente-innovador/,Noticias
539661,"Características de las escuelas que innovan",https://observatorio.minedu.gob.pe/noticias/lista-de-participantes-curso-virtual-la-educacion-fisica-en-el-curriculo-nacional-para-una-vida-activa-y-saludable-6/,Noticias
539592,"Celebremos juntos la Semana de la Educación Ambiental y Día de la",https://observatorio.minedu.gob.pe/noticias/celebremos-juntos-la-semana-de-la-educacion-ambiental-y-dia-de-la-5/,Noticias
539911,"Conoce todo sobre la norma técnica de Buenas Prácticas e Innovación Educativa",https://observatorio.minedu.gob.pe/investigaciones/articulos/conoce-todo-sobre-la-norma-tecnica-de-buenas-practicas-e-innovacion-educativa/,Artículos
54812,"Contact Form",https://observatorio.minedu.gob.pe/contact-form/,
51306,CONTÁCTENOS,https://observatorio.minedu.gob.pe/contactenos/,
540005,"Curso virtual de Innovación Educativa",https://observatorio.minedu.gob.pe/eventos/curso-virtual-de-innovacion-educativa/,"Lima, Perú"
540415,"Desarrollamos la competencia de indaga a través de la hora de la investigación y experimentación",https://observatorio.minedu.gob.pe/buena_practica/desarrollamos-la-competencia-de-indaga-a-traves-de-la-hora-de-la-investigacion-y-experimentacion/,"Docentes, Inicial"
540123,"Desarrollo de competencias matemáticas a partir del tejido de la Ulandilla, Puytu y Chumpi.",https://observatorio.minedu.gob.pe/buena_practica/desarrollo-de-competencias-matematicas-a-partir-del-tejido-de-la-ulandilla-puytu-y-chumpi/,"Docentes, Primaria"
51619,"Editar Mi Perfil",https://observatorio.minedu.gob.pe/membership-login/membership-profile/,
53783,"Editar Perfil",https://observatorio.minedu.gob.pe/editar-perfil/,
540234,"El estudio de las “buenas prácticas” docentes en la enseñanza universitaria",https://observatorio.minedu.gob.pe/investigaciones/articulos/el-estudio-de-las-buenas-practicas-docentes-en-la-ensenanza-universitaria/,Artículos
540493,"En cada rincón de mi comunidad, un aprendizaje",https://observatorio.minedu.gob.pe/buena_practica/en-cada-rincon-de-mi-comunidad-un-aprendizaje/,"Docentes, Secundaria"
55411,eqweqwe,https://observatorio.minedu.gob.pe/eqweqwe/,
540053,"ESTRATEGIAS EFICACES QUE PROMUEVEN LA FORMACIÓN DE ESCRITORES COMPETENTES",https://observatorio.minedu.gob.pe/buena_practica/estrategias-eficaces-que-promueven-la-formacion-de-escritores-competentes/,"Docentes, Secundaria"
54000,"Forgot Password",https://observatorio.minedu.gob.pe/forgot-password/,
540179,"GESTIÓN COLEGIADA DE LA PLANIFICACIÓN CURRICULAR INTERCULTURAL EN INSTITUCIÓN EDUCATIVA MULTIGRADO",https://observatorio.minedu.gob.pe/buena_practica/gestion-colegiada-de-la-planificacion-curricular-intercultural-en-institucion-educativa-multigrado/,"Directivos, Primaria"
540513,"Gestionando el currículo sembramos vida y cosechamos aprendizajes",https://observatorio.minedu.gob.pe/buena_practica/gestionando-el-curriculo-sembramos-vida-y-cosechamos-aprendizajes/,"Docentes, Secundaria"
54006,"Grupo prueba",https://observatorio.minedu.gob.pe/grupo-prueba/,
54474,Grupos,https://observatorio.minedu.gob.pe/groups/,
53848,"Guia &#8211; Buena Practica Detalle &#8211; Inicial",https://observatorio.minedu.gob.pe/buena-practica-detalle-inicial/,
53830,"Guia &#8211; Buena Practica Detalle &#8211; Primaria",https://observatorio.minedu.gob.pe/buena-practica-detalle-primaria/,
55254,"Guia &#8211; Buena Practica Detalle &#8211; Secundaria",https://observatorio.minedu.gob.pe/guia-buena-practica-detalle-secundaria/,
53417,"Guia &#8211; Historico Articulos",https://observatorio.minedu.gob.pe/mas-noticias/,
55786,"Guia &#8211; Iniciar Sesion V2",https://observatorio.minedu.gob.pe/guia-iniciar-sesion-v2/,
54100,"Guia &#8211; Investigaciones",https://observatorio.minedu.gob.pe/guia-investigaciones/,
55824,"Guia &#8211; Mensaje Reestablecer Contraseña",https://observatorio.minedu.gob.pe/guia-login-cambio-contrasena/,
56299,"Guia &#8211; Mensaje Registro",https://observatorio.minedu.gob.pe/guia-mensaje-registro/,
56021,"Guia &#8211; Mensaje Sesión Caducada",https://observatorio.minedu.gob.pe/guia-mensaje-sesion-caducada/,
54322,"Guia &#8211; Nueva Cabecera",https://observatorio.minedu.gob.pe/guia-nueva-cabecera/,
56238,"Guia &#8211; RED AMIGOS &#8211; amistades",https://observatorio.minedu.gob.pe/guia-red-amigos-amistades/,
56208,"Guia &#8211; RED PERFIL &#8211; Cambioperfil",https://observatorio.minedu.gob.pe/guia-red-perfil-cambioperfil/,
56112,"Guia &#8211; RED PERFIL &#8211; Editar",https://observatorio.minedu.gob.pe/guia-red-perfil-editar/,
56080,"Guia &#8211; RED PERFIL &#8211; Ver",https://observatorio.minedu.gob.pe/guia-red-perfil-ver-y-editar/,
54330,"Guia &#8211; Valoracion por Perfil",https://observatorio.minedu.gob.pe/guia-valoracion-por-perfil/,
51622,Guia-Titulo-Noticia/Evento/Investigaciones,https://observatorio.minedu.gob.pe/noticia-detalle/,
53926,"Historico Agenda",https://observatorio.minedu.gob.pe/historico-agenda/,
540464,"Indagando científicamente",https://observatorio.minedu.gob.pe/buena_practica/indagando-cientificamente/,"Docentes, Secundaria"
49764,"Iniciar Sesión",https://observatorio.minedu.gob.pe/iniciar-sesion/,
55157,"Iniciar Sesión &#8211; Variante RED",https://observatorio.minedu.gob.pe/iniciar-sesion-variante-red/,
1168,INICIO,https://observatorio.minedu.gob.pe/,
540649,"Inicio de clases",https://observatorio.minedu.gob.pe/eventos/inicio-de-clases/,"Lima, Perú"
540650,"Inicio de Clases",https://observatorio.minedu.gob.pe/eventos/curso-virtual-de-innovacion-educativa-2/,"Lima, Perú"
51618,"Inicio de Sesión",https://observatorio.minedu.gob.pe/membership-login/,
539589,"Inscripción al curso de «Preparación para la aplicación del instrumento pedagógico»",https://observatorio.minedu.gob.pe/noticias/inscripcion-al-curso-de-preparacion-para-la-aplicacion-del-instrumento-pedagogico-2/,Noticias
49740,INVESTIGACIONES,https://observatorio.minedu.gob.pe/investigaciones-2/,
132,"IP Bloqueada",https://observatorio.minedu.gob.pe/ip-bloqueada/,
51616,"Join Us",https://observatorio.minedu.gob.pe/membership-join/,
540275,"Jugando y participando rescatamos el parque Fortaleza para ser felices",https://observatorio.minedu.gob.pe/buena_practica/jugando-y-participando-rescatamos-el-parque-fortaleza-para-ser-felices/,"Docentes, Inicial"
539788,"La innovación en las instituciones educativas",https://observatorio.minedu.gob.pe/noticias/entrada-nueva/,Noticias
540361,"La matemática vivencial en la construcción y equipamiento de mi casa",https://observatorio.minedu.gob.pe/buena_practica/la-matematica-vivencial-en-la-construccion-y-equipamiento-de-mi-casa/,"Docentes, Secundaria"
540214,"Las buenas prácticas como recurso para la acción comunitaria: criterios de identificación y búsqueda",https://observatorio.minedu.gob.pe/investigaciones/articulos/las-buenas-practicas-como-recurso-para-la-accion-comunitaria-criterios-de-identificacion-y-busqueda/,Artículos
539601,"Lista de participantes: curso virtual «La Educación Física en el Currículo Nacional: para una vida activa y saludable»",https://observatorio.minedu.gob.pe/noticias/lista-de-participantes-curso-virtual-la-educacion-fisica-en-el-curriculo-nacional-para-una-vida-activa-y-saludable-10/,Noticias
539632,"Lista de participantes: curso virtual «La Educación Física en el Currículo Nacional: para una vida activa y saludable»",https://observatorio.minedu.gob.pe/noticias/lista-de-participantes-curso-virtual-la-educacion-fisica-en-el-curriculo-nacional-para-una-vida-activa-y-saludable/,Noticias
51936,"LISTAR NOTICIAS",https://observatorio.minedu.gob.pe/listar-noticias/,
53998,Login,https://observatorio.minedu.gob.pe/login/,
54030,"Mas Eventos V2",https://observatorio.minedu.gob.pe/mas-eventos-v2/,
53958,"Más Eventos",https://observatorio.minedu.gob.pe/prueba-calendario/,
53476,"Más Noticias &#8211; V2",https://observatorio.minedu.gob.pe/mas-noticias-v2/,
50986,"Mi Perfil",https://observatorio.minedu.gob.pe/mi-perfil/,
54012,Miembros,https://observatorio.minedu.gob.pe/members/,
539595,"Minedu inicia inscripciones para VII Concurso Nacional de Buenas Prácticas Docentes",https://observatorio.minedu.gob.pe/noticias/minedu-inicia-inscripciones-para-vii-concurso-nacional-de-buenas-practicas-docentes-2/,Noticias
539598,"Minedu inicia inscripciones para VII Concurso Nacional de Buenas Prácticas Docentes",https://observatorio.minedu.gob.pe/noticias/minedu-inicia-inscripciones-para-vii-concurso-nacional-de-buenas-practicas-docentes-3/,Noticias
539604,"Minedu inicia inscripciones para VII Concurso Nacional de Buenas Prácticas Docentes",https://observatorio.minedu.gob.pe/noticias/minedu-inicia-inscripciones-para-vii-concurso-nacional-de-buenas-practicas-docentes-4/,Noticias
53999,"My Profile",https://observatorio.minedu.gob.pe/my-profile/,
52103,Noticias,https://observatorio.minedu.gob.pe/listar-noticias-2/,
54580,"Pagina &#8211; ERROR",https://observatorio.minedu.gob.pe/pagina-error/,
54524,"Pagina detalle de Buena practica V2",https://observatorio.minedu.gob.pe/pagina-detalle-de-buena-practica-v2/,
2,"Página de ejemplo",https://observatorio.minedu.gob.pe/pagina-de-ejemplo/,
540264,"Problematización de las prácticas docentes y contextualización de la enseñanza",https://observatorio.minedu.gob.pe/investigaciones/articulos/problematizacion-de-las-practicas-docentes-y-contextualizacion-de-la-ensenanza/,Artículos
540153,"PRODUCIENDO TEXTOS DESDE LA DIVERSIDAD VIVENCIAL DE LOS NIÑOS Y NIÑAS DE LA IE 56077 DE SURUHUAYLLA",https://observatorio.minedu.gob.pe/buena_practica/produciendo-textos-desde-la-diversidad-vivencial-de-los-ninos-y-ninas-de-la-ie-56077-de-suruhuaylla/,"Docentes, Primaria"
55390,"PROMOVIENDO LA INVESTIGACIÓN DE POLIFENOLES Y SU APLICACIÓN EN LA TECNOLOGÍA DE ALIMENTOS PARA MEJORAR LA CALIDAD DE VIDA",https://observatorio.minedu.gob.pe/buena_practica/promoviendo-investigacion-polifenoles/,"Docentes, Secundaria"
54570,"prueba carosel",https://observatorio.minedu.gob.pe/prueba-carosel/,
55451,"prueba shortcode",https://observatorio.minedu.gob.pe/prueba-shortcode/,
55949,Red,https://observatorio.minedu.gob.pe/red/,
54011,"Red de Docentes Innovadores",https://observatorio.minedu.gob.pe/activity/,
53995,Registration,https://observatorio.minedu.gob.pe/registration/,
50461,Registro,https://observatorio.minedu.gob.pe/registro/,
54925,"Resultados de Búsqueda",https://observatorio.minedu.gob.pe/resultados-de-busqueda/,
54002,"Search Users",https://observatorio.minedu.gob.pe/search-users/,
540336,"Somos pequeños mercedarios lectores del Perú",https://observatorio.minedu.gob.pe/buena_practica/somos-pequenos-mercedarios-lectores-del-peru/,"Docentes, Primaria"
54001,"Submit New Blog Post",https://observatorio.minedu.gob.pe/submit-new-blog-post/,
52732,Suscribete,https://observatorio.minedu.gob.pe/suscribete/,
540565,"Taller de Buenas Prácticas",https://observatorio.minedu.gob.pe/eventos/taller-de-buenas-practicas/,
539808,"Taller de Capacitación Docente 2020 en la institución educativa 20530",https://observatorio.minedu.gob.pe/eventos/taller-de-capacitacion-docente-2020/,"Lima, Perú"
55799,"Términos y Condiciones",https://observatorio.minedu.gob.pe/terminos-y-condiciones/,
53997,"Todos los grupos",https://observatorio.minedu.gob.pe/all-groups/,
540377,"Trabajamos proyectos de reciclaje para salvar el planeta en peligro",https://observatorio.minedu.gob.pe/buena_practica/trabajamos-proyectos-de-reciclaje-para-salvar-el-planeta-en-peligro/,"Docentes, Secundaria"
540442,"Valorando el aprendizaje intergeneracional Fortalecemos nuestros talentos artísticos y protegemos el legado cultural de Pozuzo",https://observatorio.minedu.gob.pe/buena_practica/valorando-el-aprendizaje-intergeneracional-fortalecemos-nuestros-talentos-artisticos-y-protegemos-el-legado-cultural-de-pozuzo/,"Docentes, Secundaria"
