2020-12-14T14:20:42+00:00 INFO Start Sending Email Using PHP Mail
2020-12-14T14:20:42+00:00 INFO Email Sent Successfully Using PHP Mail
2020-12-14T14:20:42+00:00 INFO Start Sending Email Using PHP Mail
2020-12-14T14:20:42+00:00 INFO Email Sent Successfully Using PHP Mail
2020-12-14T14:20:42+00:00 INFO Start Sending Email Using PHP Mail
2020-12-14T14:20:42+00:00 INFO Email Sent Successfully Using PHP Mail
2020-12-14T14:20:42+00:00 INFO Start Sending Email Using PHP Mail
2020-12-14T14:20:42+00:00 INFO Email Sent Successfully Using PHP Mail
2020-12-14T14:35:04+00:00 INFO Start Sending Email Using PHP Mail
2020-12-14T14:35:04+00:00 INFO Email Sent Successfully Using PHP Mail
2020-12-14T14:35:04+00:00 INFO Start Sending Email Using PHP Mail
2020-12-14T14:35:04+00:00 INFO Email Sent Successfully Using PHP Mail
2020-12-14T14:35:04+00:00 INFO Start Sending Email Using PHP Mail
2020-12-14T14:35:04+00:00 INFO Email Sent Successfully Using PHP Mail
2020-12-14T14:35:04+00:00 INFO Start Sending Email Using PHP Mail
2020-12-14T14:35:04+00:00 INFO Email Sent Successfully Using PHP Mail
